<svg width="190" height="631" viewBox="0 0 190 631" fill="none" xmlns="http://www.w3.org/2000/svg">
<path opacity="0.1" fill-rule="evenodd" clip-rule="evenodd" d="M5.59158 346.204C0.39652 285.606 34.0201 231.325 62.4135 177.603C95.1183 115.724 116.077 33.5117 182.38 11.7093C248.679 -10.0919 315.517 40.8056 376.846 74.2081C427.066 101.56 462.099 144.504 501.852 185.708C548.771 234.339 615.662 270.31 629.897 336.492C645.116 407.242 628.813 490.123 578.473 541.922C529.701 592.108 448.837 578.414 380.545 593.074C322.533 605.526 265.518 639.928 209.204 621.188C153.268 602.573 124.895 543.782 89.7349 496.297C54.7633 449.067 10.6182 404.838 5.59158 346.204Z" fill="#89ADF5"/>
</svg>
